<svg width="80" height="110" viewBox="0 0 80 110" fill="none" xmlns="http://www.w3.org/2000/svg">
<path d="M15.24 104H13.416L7.928 95.664V104H6.104V92.72H7.928L13.416 101.088V92.72H15.24V104ZM21.4798 95.072C22.3331 95.072 23.1011 95.2533 23.7838 95.616C24.4664 95.9787 24.9998 96.5013 25.3837 97.184C25.7678 97.8667 25.9598 98.6667 25.9598 99.584C25.9598 100.512 25.7678 101.317 25.3837 102C24.9998 102.683 24.4664 103.205 23.7838 103.568C23.1011 103.931 22.3331 104.112 21.4798 104.112C20.6264 104.112 19.8584 103.931 19.1758 103.568C18.5038 103.205 17.9704 102.683 17.5758 102C17.1918 101.307 16.9998 100.501 16.9998 99.584C16.9998 98.6667 17.1918 97.8667 17.5758 97.184C17.9704 96.5013 18.5038 95.9787 19.1758 95.616C19.8584 95.2533 20.6264 95.072 21.4798 95.072ZM21.4798 96.656C21.0104 96.656 20.5784 96.7627 20.1838 96.976C19.7891 97.1893 19.4691 97.52 19.2238 97.968C18.9891 98.4053 18.8718 98.944 18.8718 99.584C18.8718 100.235 18.9891 100.779 19.2238 101.216C19.4691 101.653 19.7891 101.979 20.1838 102.192C20.5784 102.405 21.0104 102.512 21.4798 102.512C21.9491 102.512 22.3811 102.405 22.7758 102.192C23.1704 101.979 23.4851 101.653 23.7198 101.216C23.9651 100.779 24.0878 100.235 24.0878 99.584C24.0878 98.944 23.9651 98.4053 23.7198 97.968C23.4851 97.52 23.1704 97.1893 22.7758 96.976C22.3811 96.7627 21.9491 96.656 21.4798 96.656ZM34.9994 95.072C35.7994 95.072 36.482 95.2693 37.0474 95.664C37.6127 96.0587 38.0074 96.5813 38.2314 97.232V92.16H40.0714V104H38.2314V101.952C38.0074 102.603 37.6127 103.125 37.0474 103.52C36.482 103.915 35.7994 104.112 34.9994 104.112C34.2314 104.112 33.5434 103.931 32.9354 103.568C32.338 103.205 31.8687 102.683 31.5274 102C31.186 101.317 31.0154 100.512 31.0154 99.584C31.0154 98.6667 31.186 97.8667 31.5274 97.184C31.8687 96.5013 32.338 95.9787 32.9354 95.616C33.5434 95.2533 34.2314 95.072 34.9994 95.072ZM35.5594 96.672C34.7487 96.672 34.098 96.9333 33.6074 97.456C33.1274 97.968 32.8874 98.6773 32.8874 99.584C32.8874 100.491 33.1274 101.205 33.6074 101.728C34.098 102.24 34.7487 102.496 35.5594 102.496C36.0714 102.496 36.53 102.379 36.9354 102.144C37.3407 101.899 37.6607 101.557 37.8954 101.12C38.13 100.683 38.2474 100.171 38.2474 99.584C38.2474 99.008 38.13 98.5013 37.8954 98.064C37.6607 97.616 37.3407 97.2747 36.9354 97.04C36.53 96.7947 36.0714 96.672 35.5594 96.672ZM45.7963 95.072C46.5963 95.072 47.2789 95.2693 47.8443 95.664C48.4096 96.0587 48.8096 96.5813 49.0443 97.232V95.184H50.8683V104H49.0443V101.952C48.8096 102.603 48.4096 103.125 47.8443 103.52C47.2789 103.915 46.5963 104.112 45.7963 104.112C45.0283 104.112 44.3403 103.931 43.7323 103.568C43.1349 103.205 42.6656 102.683 42.3243 102C41.9829 101.317 41.8123 100.512 41.8123 99.584C41.8123 98.6667 41.9829 97.8667 42.3243 97.184C42.6656 96.5013 43.1349 95.9787 43.7323 95.616C44.3403 95.2533 45.0283 95.072 45.7963 95.072ZM46.3563 96.672C45.5456 96.672 44.8949 96.9333 44.4043 97.456C43.9243 97.968 43.6843 98.6773 43.6843 99.584C43.6843 100.491 43.9243 101.205 44.4043 101.728C44.8949 102.24 45.5456 102.496 46.3563 102.496C46.8683 102.496 47.3269 102.379 47.7323 102.144C48.1376 101.899 48.4576 101.557 48.6923 101.12C48.9269 100.683 49.0443 100.171 49.0443 99.584C49.0443 99.008 48.9269 98.5013 48.6923 98.064C48.4576 97.616 48.1376 97.2747 47.7323 97.04C47.3269 96.7947 46.8683 96.672 46.3563 96.672ZM57.4891 102.416V104H56.3691C55.4305 104 54.7158 103.776 54.2251 103.328C53.7451 102.869 53.5051 102.112 53.5051 101.056V96.736H52.2411V95.184H53.5051V92.992H55.3451V95.184H57.4731V96.736H55.3451V101.088C55.3451 101.589 55.4358 101.936 55.6171 102.128C55.8091 102.32 56.1398 102.416 56.6091 102.416H57.4891ZM62.7338 95.072C63.5338 95.072 64.2164 95.2693 64.7818 95.664C65.3471 96.0587 65.7471 96.5813 65.9818 97.232V95.184H67.8058V104H65.9818V101.952C65.7471 102.603 65.3471 103.125 64.7818 103.52C64.2164 103.915 63.5338 104.112 62.7338 104.112C61.9658 104.112 61.2778 103.931 60.6698 103.568C60.0724 103.205 59.6031 102.683 59.2618 102C58.9204 101.317 58.7498 100.512 58.7498 99.584C58.7498 98.6667 58.9204 97.8667 59.2618 97.184C59.6031 96.5013 60.0724 95.9787 60.6698 95.616C61.2778 95.2533 61.9658 95.072 62.7338 95.072ZM63.2938 96.672C62.4831 96.672 61.8324 96.9333 61.3418 97.456C60.8618 97.968 60.6218 98.6773 60.6218 99.584C60.6218 100.491 60.8618 101.205 61.3418 101.728C61.8324 102.24 62.4831 102.496 63.2938 102.496C63.8058 102.496 64.2644 102.379 64.6698 102.144C65.0751 101.899 65.3951 101.557 65.6298 101.12C65.8644 100.683 65.9818 100.171 65.9818 99.584C65.9818 99.008 65.8644 98.5013 65.6298 98.064C65.3951 97.616 65.0751 97.2747 64.6698 97.04C64.2644 96.7947 63.8058 96.672 63.2938 96.672Z" fill="#BFC5DC"/>
<path d="M70 42.5H75V62.5H70V42.5Z" fill="#BFC5DC"/>
<path d="M50 12.5H55V32.5H50V12.5Z" fill="#BFC5DC"/>
<path d="M10 5H5V70C5 71.3261 5.52678 72.5979 6.46447 73.5355C7.40215 74.4732 8.67392 75 10 75H75V70H10V62.5H65V42.5H10V32.5H45V12.5H10V5ZM60 47.5V57.5H10V47.5H60ZM40 17.5V27.5H10V17.5H40Z" fill="#BFC5DC"/>
</svg>
