<svg width="13" height="13" viewBox="0 0 13 13" fill="none" xmlns="http://www.w3.org/2000/svg">
<path d="M11.375 2.4375H1.625C1.40951 2.4375 1.20285 2.5231 1.05048 2.67548C0.898102 2.82785 0.8125 3.03451 0.8125 3.25V9.75C0.8125 9.96549 0.898102 10.1722 1.05048 10.3245C1.20285 10.4769 1.40951 10.5625 1.625 10.5625H11.375C11.5905 10.5625 11.7972 10.4769 11.9495 10.3245C12.1019 10.1722 12.1875 9.96549 12.1875 9.75V3.25C12.1875 3.03451 12.1019 2.82785 11.9495 2.67548C11.7972 2.5231 11.5905 2.4375 11.375 2.4375ZM10.4812 3.25L6.5 6.00437L2.51875 3.25H10.4812ZM1.625 9.75V3.61969L6.26844 6.83313C6.33644 6.8803 6.41723 6.90558 6.5 6.90558C6.58277 6.90558 6.66356 6.8803 6.73156 6.83313L11.375 3.61969V9.75H1.625Z" fill="#09B66D"/>
</svg>
