<svg width="19" height="25" viewBox="0 0 19 25" fill="none" xmlns="http://www.w3.org/2000/svg">
<path d="M18.1364 0H3.67045C3.5517 0 3.45455 0.100446 3.45455 0.223214V1.78571C3.45455 1.90848 3.5517 2.00893 3.67045 2.00893H17.0568V21.2054C17.0568 21.3281 17.154 21.4286 17.2727 21.4286H18.7841C18.9028 21.4286 19 21.3281 19 21.2054V0.892857C19 0.398996 18.6141 0 18.1364 0ZM14.6818 3.57143H0.863636C0.385937 3.57143 0 3.97042 0 4.46429V19.2718C0 19.5089 0.0917612 19.7349 0.253693 19.9023L4.93082 24.7377C4.9902 24.7991 5.05767 24.8493 5.13054 24.8912V24.9442H5.24389C5.33835 24.9805 5.43821 25 5.54077 25H14.6818C15.1595 25 15.5455 24.601 15.5455 24.1071V4.46429C15.5455 3.97042 15.1595 3.57143 14.6818 3.57143ZM5.99148 23.2143H5.98608L1.94318 19.0346V19.029H5.99148V23.2143Z" fill="#3670FB"/>
</svg>
