<svg width="20" height="22" viewBox="0 0 20 22" fill="none" xmlns="http://www.w3.org/2000/svg">
<rect x="0.5" y="13" width="4" height="8" rx="0.5" stroke="#38327C"/>
<rect x="7.5" y="11" width="4" height="10" rx="0.5" stroke="#38327C"/>
<rect x="14.5" y="9" width="4" height="12" rx="0.5" stroke="#38327C"/>
<path d="M16.5 1V6" stroke="#38327C" stroke-linecap="round"/>
<path d="M14 5L16.5 6.5L19 5" stroke="#38327C" stroke-linecap="round"/>
</svg>
