<svg width="20" height="21" viewBox="0 0 20 21" fill="none" xmlns="http://www.w3.org/2000/svg">
<rect x="1.5" y="12" width="4" height="8" rx="0.5" stroke="#2BC155"/>
<rect x="8.5" y="10" width="4" height="10" rx="0.5" stroke="#2BC155"/>
<rect x="15.5" y="8" width="4" height="12" rx="0.5" stroke="#2BC155"/>
<path d="M1 8.5C4.44681 8 10.5745 8 19 1.5" stroke="#2BC155" stroke-linecap="round"/>
<path d="M16 1L19 1.5V4.5" stroke="#2BC155" stroke-linecap="round"/>
</svg>
