<svg width="14" height="15" viewBox="0 0 14 15" fill="none" xmlns="http://www.w3.org/2000/svg">
<path d="M13.8823 6.42958L11.5161 5.13888V3.46656C11.5161 3.34192 11.4152 3.24075 11.2903 3.24075H9.70965V2.33753C9.70965 2.25489 9.66448 2.17879 9.592 2.13927L7.10814 0.784441C7.04107 0.747634 6.95911 0.747634 6.89204 0.784441L4.40818 2.13927C4.33547 2.17879 4.29031 2.25489 4.29031 2.33753V3.24075H2.70967C2.5848 3.24075 2.48386 3.34192 2.48386 3.46656V5.13888L0.117645 6.42958C0.0451611 6.4691 0 6.5452 0 6.62784V8.8859C0 8.96854 0.0451611 9.04464 0.117645 9.08415L2.60151 10.439C2.63515 10.4573 2.67241 10.4665 2.70967 10.4665C2.74693 10.4665 2.78418 10.4573 2.81783 10.439L5.30169 9.08415C5.37418 9.04464 5.41934 8.96854 5.41934 8.8859V6.62784C5.41934 6.5452 5.37418 6.4691 5.30169 6.42958L2.93547 5.13888V3.69237H4.29031V4.59559C4.29031 4.67823 4.33547 4.75433 4.40795 4.79385L6.89182 6.14868C6.92546 6.16697 6.96272 6.17623 6.99998 6.17623C7.03723 6.17623 7.07449 6.16697 7.10814 6.14868L9.592 4.79385C9.66448 4.75433 9.70965 4.67823 9.70965 4.59559V3.69237H11.0645V5.13888L8.69826 6.42958C8.62578 6.4691 8.58062 6.5452 8.58062 6.62784V8.8859C8.58062 8.96854 8.62578 9.04464 8.69826 9.08415L11.1821 10.439C11.2158 10.4573 11.253 10.4665 11.2903 10.4665C11.3275 10.4665 11.3648 10.4573 11.3984 10.439L13.8823 9.08415C13.9548 9.04464 14 8.96854 14 8.8859V6.62784C14 6.5452 13.9548 6.4691 13.8823 6.42958ZM0.451611 7.0081L2.48386 8.11658V9.86025L0.451611 8.75177V7.0081ZM2.93547 9.86025V8.11658L4.96773 7.0081V8.75177L2.93547 9.86025ZM4.72205 6.62784L2.70967 7.72548L0.697288 6.62784L2.48386 5.65349V6.17623H2.93547V5.65349L4.72205 6.62784ZM6.99998 1.23989L9.01236 2.33753L6.99998 3.43517L4.9876 2.33753L6.99998 1.23989ZM4.74192 3.69237H5.19353V3.24075H4.74192V2.71779L6.77417 3.82627V5.56994L4.74192 4.46146V3.69237ZM9.25803 4.46146L7.22578 5.56994V3.82627L9.25803 2.71779V3.24075H8.80642V3.69237H9.25803V4.46146ZM11.0645 5.65349V6.17623H11.5161V5.65349L13.3027 6.62784L11.2903 7.72548L9.2779 6.62784L11.0645 5.65349ZM9.03223 7.0081L11.0645 8.11658V9.86025L9.03223 8.75177V7.0081ZM11.5161 9.86025V8.11658L13.5483 7.0081V8.75177L11.5161 9.86025Z" fill="white"/>
<path d="M11.0689 11.8208H9.71406V10.9176C9.71406 10.835 9.6689 10.7589 9.59642 10.7194L7.11256 9.36452C7.04549 9.32771 6.96352 9.32771 6.89646 9.36452L4.4126 10.7194C4.33989 10.7589 4.29473 10.835 4.29473 10.9176V11.8208H2.93989V10.9176H2.48828V12.0466C2.48828 12.1713 2.58922 12.2724 2.71409 12.2724H4.29473V13.1757C4.29473 13.2583 4.33989 13.3344 4.41237 13.3739L6.89623 14.7288C6.92988 14.747 6.96714 14.7563 7.0044 14.7563C7.04165 14.7563 7.07891 14.747 7.11256 14.7288L9.59642 13.3739C9.6689 13.3344 9.71406 13.2583 9.71406 13.1757V12.2724H11.2947C11.4196 12.2724 11.5205 12.1713 11.5205 12.0466V10.9176H11.0689V11.8208ZM7.0044 9.81997L9.01678 10.9176L7.0044 12.0153L4.99201 10.9176L7.0044 9.81997ZM4.74634 12.2724H5.19795V11.8208H4.74634V11.2979L6.77859 12.4063V14.15L4.74634 13.0415V12.2724ZM9.26245 13.0415L7.2302 14.15V12.4063L9.26245 11.2979V11.8208H8.81084V12.2724H9.26245V13.0415Z" fill="white"/>
</svg>
