<svg width="24" height="24" viewBox="0 0 24 24" fill="none" xmlns="http://www.w3.org/2000/svg">
<path d="M17.2686 9.06104L13.0031 12.4953C12.1959 13.1282 11.0644 13.1282 10.2571 12.4953L5.95508 9.06104" stroke="#38327C" stroke-width="1.5" stroke-linecap="round" stroke-linejoin="round"/>
<path fill-rule="evenodd" clip-rule="evenodd" d="M6.88787 3.5H16.3158C17.6752 3.51525 18.969 4.08993 19.896 5.0902C20.823 6.09048 21.3022 7.42903 21.222 8.79412V15.322C21.3022 16.6871 20.823 18.0256 19.896 19.0259C18.969 20.0262 17.6752 20.6009 16.3158 20.6161H6.88787C3.96796 20.6161 2 18.2407 2 15.322V8.79412C2 5.87545 3.96796 3.5 6.88787 3.5Z" stroke="#38327C" stroke-width="1.5" stroke-linecap="round" stroke-linejoin="round"/>
</svg>
