<svg width="17" height="17" viewBox="0 0 17 17" fill="none" xmlns="http://www.w3.org/2000/svg">
<path d="M6.78605 4.87214C6.78605 5.4035 6.78605 5.91851 6.95632 6.40082C5.16637 8.46902 0 14.3507 0 14.3507L0.120438 15.8345C0.120438 15.8345 1.56569 17.1833 1.78165 16.9789C2.42121 16.3658 2.8116 15.9489 2.8116 15.9489L3.11228 14.177L5.06877 14.0352L5.22575 12.1223L7.2869 12.0835L7.30725 10.0361L9.49548 10.122L9.86925 9.35189C10.513 9.62575 11.0985 9.73611 11.8502 9.73611C14.6951 9.73611 17 7.55345 17 4.86397C17 2.17448 14.6934 0 11.8486 0C9.00376 0 6.78605 2.18265 6.78605 4.87214ZM14.6249 3.92387C14.6249 4.23794 14.5303 4.54495 14.353 4.80609C14.1757 5.06722 13.9237 5.27075 13.6289 5.39094C13.3341 5.51113 13.0096 5.54257 12.6967 5.4813C12.3837 5.42003 12.0962 5.26879 11.8706 5.04672C11.6449 4.82464 11.4912 4.54169 11.429 4.23366C11.3667 3.92563 11.3987 3.60635 11.5208 3.31619C11.6429 3.02603 11.8497 2.77803 12.115 2.60355C12.3804 2.42906 12.6923 2.33593 13.0114 2.33593C13.2234 2.33571 13.4333 2.37664 13.6291 2.45637C13.825 2.53609 14.0029 2.65305 14.1528 2.80055C14.3027 2.94804 14.4215 3.12318 14.5025 3.31594C14.5835 3.50869 14.6251 3.71528 14.6249 3.92387Z" fill="white"/>
</svg>
