<svg width="15" height="14" viewBox="0 0 15 14" fill="none" xmlns="http://www.w3.org/2000/svg">
<path d="M2.46289 2.35059V11.4228H12.1739" stroke="#26CE83" stroke-linecap="round" stroke-linejoin="round"/>
<path opacity="0.3" d="M3.91895 8.24752L6.34669 5.52587L8.28889 7.3403L11.2022 4.16504" stroke="#606170" stroke-linecap="round" stroke-linejoin="round"/>
</svg>
