<svg width="25" height="22" viewBox="0 0 25 22" fill="none" xmlns="http://www.w3.org/2000/svg">
<path d="M18.1422 0C22.45 0 24.9956 2.39083 24.9956 6.44991V6.49494H19.7022C17.2389 6.49913 15.2433 8.37997 15.2389 10.7017C15.2356 13.0286 17.2333 14.9178 19.7022 14.921H25V15.2907C25 19.3497 22.4544 21.75 18.1467 21.75H6.85444C2.54556 21.75 0 19.3497 0 15.2907V6.44991C0 2.39083 2.54556 0 6.85444 0H18.1422ZM12.9789 4.68217H5.92444C5.4 4.68428 4.97444 5.08537 4.97221 5.58071C4.97 6.07815 5.39667 6.48343 5.92444 6.48552H12.9878C13.5156 6.48343 13.9422 6.07815 13.94 5.57966C13.9378 5.08223 13.5067 4.68009 12.9789 4.68217Z" fill="#38327C"/>
<path opacity="0.4" d="M17.5468 11.2334C17.8082 12.3827 18.8506 13.1914 20.0407 13.1703H24.1031C24.5983 13.1703 25 12.7739 25 12.2839V9.22491C24.9989 8.73594 24.5983 8.33845 24.1031 8.3374H19.9451C18.5913 8.34161 17.4979 9.42786 17.5 10.7665C17.5 10.9232 17.5159 11.0798 17.5468 11.2334Z" fill="#38327C"/>
<path d="M20 11.9626C20.6904 11.9626 21.25 11.4216 21.25 10.7542C21.25 10.0869 20.6904 9.5459 20 9.5459C19.3096 9.5459 18.75 10.0869 18.75 10.7542C18.75 11.4216 19.3096 11.9626 20 11.9626Z" fill="#200E32"/>
</svg>
